<svg xmlns="http://www.w3.org/2000/svg" fill="none" viewBox="0 0 32 30">
    <path fill="#1F2937" d="M3.231 21.25h24.556a.638.638 0 00.646-.625V7.5c0-1.379-1.16-2.5-2.585-2.5H5.17C3.744 5 2.585 6.121 2.585 7.5v13.125c0 .344.29.625.646.625zM5.17 7.5h20.678V20H5.17V7.5zM0 22.5h31.018V25H0v-2.5z"/>
    <path fill="#6EE7B7" d="M10.986 10.992l-3.042 2.942a.613.613 0 000 .882l3.042 2.942.912-.883-2.585-2.5 2.585-2.5-.912-.883zM20.032 10.992l-.912.883 2.584 2.5-2.584 2.5.912.883 3.041-2.942a.613.613 0 000-.882l-3.04-2.942zM12.72 18.455l4.386-9.898 1.188.492-4.386 9.899-1.188-.493z"/>
</svg>