<svg xmlns="http://www.w3.org/2000/svg" fill="none" viewBox="0 0 100 100">
  <path fill="#064E3B" d="M97.852 59.05L82.005 25.156a.646.646 0 01-.039-.09 14.675 14.675 0 00-8.424-7.592l-3.529-6.003c-.013-.013-.026-.039-.039-.052a6.291 6.291 0 00-5.39-3.086c-3.451 0-6.25 2.8-6.25 6.25v6.472a14.534 14.534 0 00-4.167 10.195v3.203A8.243 8.243 0 0050 33.333c-1.51 0-2.943.404-4.167 1.12V31.25c0-3.958-1.588-7.565-4.166-10.195v-6.472c0-3.45-2.8-6.25-6.25-6.25-2.2 0-4.271 1.185-5.391 3.086-.013.013-.026.04-.039.052l-3.529 6.003c-3.659 1.276-6.744 3.984-8.424 7.591l-.04.078L2.149 59.05A22.847 22.847 0 000 68.75c0 12.63 10.287 22.917 22.917 22.917 12.317 0 22.395-9.766 22.89-21.966A8.313 8.313 0 0050 70.833a8.35 8.35 0 004.193-1.132c.495 12.2 10.573 21.966 22.89 21.966C89.713 91.667 100 81.38 100 68.75c0-3.464-.768-6.745-2.148-9.7zm-15.04-12.487a23.1 23.1 0 00-5.729-.73A22.812 22.812 0 0062.5 51.081V31.25c0-3.45 2.8-6.25 6.25-6.25a6.295 6.295 0 015.638 3.542c.013.026.026.039.026.065l8.398 17.956zM64.584 12.5c.73 0 1.394.365 1.771.99.013.013.013.026.026.039l1.85 3.15a14.778 14.778 0 00-5.73 1.394v-3.49a2.09 2.09 0 012.083-2.083zM50 37.5a4.179 4.179 0 014.167 4.167v13.62A8.243 8.243 0 0050 54.166c-1.51 0-2.943.403-4.167 1.12v-13.62A4.179 4.179 0 0150 37.5zM33.646 13.49a2.047 2.047 0 011.77-.99 2.09 2.09 0 012.084 2.083v3.49a14.33 14.33 0 00-5.73-1.393l1.85-3.151c.013-.013.013-.026.026-.04zm-8.06 15.117c.013-.026.013-.04.026-.065A6.295 6.295 0 0131.25 25c3.45 0 6.25 2.8 6.25 6.25v19.83a22.812 22.812 0 00-14.583-5.247c-1.98 0-3.894.248-5.73.73l8.399-17.956zm-2.67 54.726c-8.046 0-14.583-6.536-14.583-14.583s6.537-14.583 14.584-14.583c8.046 0 14.583 6.536 14.583 14.583s-6.537 14.583-14.583 14.583zM50 66.667a4.179 4.179 0 01-4.167-4.167A4.179 4.179 0 0150 58.333a4.179 4.179 0 014.167 4.167A4.179 4.179 0 0150 66.667zm27.083 16.666c-8.046 0-14.583-6.536-14.583-14.583s6.537-14.583 14.583-14.583c8.047 0 14.584 6.536 14.584 14.583S85.13 83.333 77.083 83.333z"/>
  <path fill="#059669" d="M16.667 68.75v-2.083H12.5v2.083c0 5.742 4.674 10.417 10.417 10.417H25V75h-2.083c-3.45 0-6.25-2.8-6.25-6.25zM70.833 68.75v-2.083h-4.166v2.083c0 5.742 4.674 10.417 10.416 10.417h2.084V75h-2.084c-3.45 0-6.25-2.8-6.25-6.25z"/>
</svg>