<svg xmlns="http://www.w3.org/2000/svg" fill="none" viewBox="0 0 100 100">
  <path fill="#064E3B" d="M91.667 16.667H8.333C3.737 16.667 0 20.404 0 25v50c0 4.596 3.737 8.333 8.333 8.333h83.334c4.596 0 8.333-3.737 8.333-8.333V25c0-4.596-3.737-8.333-8.333-8.333zm0 58.333H8.333V25h83.334v50s.013 0 0 0z"/>
  <path fill="#059669" d="M54.167 33.333H87.5V37.5H54.167v-4.167zM54.167 41.667h25v4.166h-25v-4.166zM54.167 50H87.5v4.167H54.167V50zM54.167 58.333H87.5V62.5H54.167v-4.167z"/>
  <path fill="#064E3B" d="M38.841 52.409a17.352 17.352 0 00-1.9-.964c2.877-2.291 4.726-5.82 4.726-9.778 0-6.888-5.612-12.5-12.5-12.5s-12.5 5.612-12.5 12.5c0 3.958 1.849 7.487 4.726 9.778a15.33 15.33 0 00-1.9.964c-2.631 1.55-4.818 3.815-6.693 6.94a2.093 2.093 0 00.663 2.839c4.766 3.007 9.91 4.479 15.704 4.479 5.794 0 10.937-1.472 15.703-4.492a2.09 2.09 0 00.664-2.839c-1.875-3.112-4.063-5.378-6.693-6.927zM20.833 41.667c0-4.597 3.737-8.334 8.334-8.334 4.596 0 8.333 3.737 8.333 8.334 0 4.596-3.737 8.333-8.333 8.333-4.597 0-8.334-3.737-8.334-8.333zM29.167 62.5c-4.245 0-8.06-.911-11.615-2.773 2.878-3.828 6.537-5.56 11.615-5.56s8.737 1.731 11.614 5.56c-3.554 1.862-7.37 2.773-11.614 2.773z"/>
</svg>