<svg xmlns="http://www.w3.org/2000/svg" fill="none" viewBox="0 0 100 100">
    <path fill="#064E3B" d="M99.648 42.604c-2.37-3.58-8.15-4.649-11.601-4.961l3.555-14.219a2.084 2.084 0 00-.717-2.135 2.091 2.091 0 00-2.24-.235l-12.304 6.16 2.409-7.852a2.06 2.06 0 00-.17-1.615C74.519 10.377 67.28 4.453 57.058.17a2.072 2.072 0 00-2.539.768c-.078.104-6.732 10.052-13.945 17.93a4.177 4.177 0 00-3.932 1.107L26.224 30.39a4.21 4.21 0 00-1.159 3.698l3.737 20.456L5.117 74.31c-.013.013-.039.026-.052.052A14.62 14.62 0 000 85.416a14.512 14.512 0 004.284 10.326 14.512 14.512 0 0010.3 4.258 14.62 14.62 0 0011.054-5.065c.013-.014.026-.04.052-.053L45.47 71.198l20.455 3.737a4.16 4.16 0 003.698-1.16L80.04 63.36a4.15 4.15 0 001.068-4.05c7.851-7.526 17.8-13.723 17.916-13.788.482-.3.82-.782.938-1.329.117-.547 0-1.12-.313-1.588zM44.57 62.564a4.149 4.149 0 00-3.945 1.433L19.31 89.517a6.28 6.28 0 01-4.727 2.15 6.29 6.29 0 01-4.427-1.824 6.268 6.268 0 01.339-9.153l25.52-21.315a4.208 4.208 0 001.433-3.946l-3.36-18.398 28.907 28.906-18.425-3.372zm22.709 1.772L35.664 32.72l3.92-3.92 31.6 31.615-3.905 3.92zm11.276-8.347L43.932 21.367c5.73-6.315 10.95-13.633 13.073-16.68 8.164 3.685 14.037 8.503 17.5 14.323l-3.58 11.64a2.075 2.075 0 00.65 2.201 2.086 2.086 0 002.28.274l12.616-6.302L83.398 39.1a2.087 2.087 0 002.019 2.591c2.187 0 6.484.482 9.062 1.836-3.463 2.266-10.13 6.953-15.924 12.461z"/>
    <path fill="#059669" d="M16.667 85.417a2.083 2.083 0 11-4.167 0 2.083 2.083 0 014.167 0z"/>
</svg>