<svg xmlns="http://www.w3.org/2000/svg" fill="none" viewBox="0 0 100 100">
    <path fill="#064E3B" d="M94.635 17.917a4.167 4.167 0 00-2.968-1.25c-5.534 0-13.204-2.006-21.589-5.651-7.031-3.047-13.841-6.98-17.357-10a4.184 4.184 0 00-5.442 0c-3.516 3.033-10.326 6.966-17.357 10.013-8.386 3.633-16.055 5.638-21.589 5.638-1.12 0-2.187.455-2.968 1.25a4.201 4.201 0 00-1.198 2.994c.013.495.286 12.305 5.755 27.865 3.203 9.115 7.552 17.67 12.916 25.404 6.706 9.687 15.027 18.112 24.74 25.039.73.52 1.576.781 2.422.781.846 0 1.693-.26 2.422-.781 9.7-6.927 18.02-15.352 24.74-25.04 5.364-7.734 9.7-16.288 12.916-25.403 5.469-15.56 5.755-27.37 5.755-27.865a4.095 4.095 0 00-1.198-2.994zM82.11 46.302C75.664 64.427 64.87 79.336 50 90.651 35.13 79.323 24.336 64.414 17.89 46.302c-3.28-9.232-4.57-17.11-5.078-21.588 7.292-.886 14.91-3.66 20.417-6.055C39.596 15.912 45.703 12.539 50 9.44c4.297 3.086 10.404 6.458 16.758 9.219 5.508 2.396 13.125 5.17 20.416 6.055-.494 4.479-1.783 12.37-5.065 21.588z"/>
    <path fill="#059669" d="M48.79 17.057c-7.11 5.078-15 10.209-26.225 12.149a2.081 2.081 0 00-1.719 2.174c.495 8.268 3.685 18.177 8.998 27.878 5.208 9.518 11.9 17.904 18.854 23.607a2.122 2.122 0 002.656 0C58.307 77.162 65 68.776 70.208 59.258c5.313-9.7 8.503-19.61 8.998-27.878a2.081 2.081 0 00-1.719-2.174c-11.276-1.953-19.167-7.07-26.276-12.149a2.072 2.072 0 00-2.422 0zM50 78.516c-12.513-10.99-23.23-30.664-24.844-45.573 10.469-2.175 18.06-6.85 24.844-11.64 6.797 4.79 14.388 9.465 24.844 11.64C73.229 47.852 62.513 67.526 50 78.516z"/>
</svg>