<svg xmlns="http://www.w3.org/2000/svg" fill="none" viewBox="0 0 18 18">
  <g clip-path="url(#clip0)">
    <path fill="#34D399" d="M11.25 15.375a.376.376 0 00-.375-.375H9.75v-2.25H12c1.603 0 3.11-.623 4.242-1.758A5.957 5.957 0 0018 6.75c0-1.802-.703-3.5-1.976-4.774A6.718 6.718 0 0011.25 0a6.71 6.71 0 00-3.9 1.24 6.708 6.708 0 00-2.173 2.562 4.479 4.479 0 00-3.86 1.266A4.465 4.465 0 000 8.25c0 1.202.469 2.332 1.317 3.183A4.479 4.479 0 004.5 12.75h3.75V15H7.125a.376.376 0 00-.375.375v.375H0v1.5h6.75v.375c0 .206.169.375.375.375h3.75a.376.376 0 00.375-.375v-.375H18v-1.5h-6.75v-.375zM1.5 8.25c0-1.655 1.345-3 3-3 1.013 0 1.948.504 2.505 1.35l1.252-.825a4.502 4.502 0 00-1.64-1.498A5.28 5.28 0 0111.25 1.5a5.256 5.256 0 015.25 5.25c0 2.482-2.018 4.5-4.5 4.5H4.5c-1.655 0-3-1.345-3-3zm9 9h-3v-1.5h3v1.5z"/>
  </g>
  <defs>
    <clipPath id="clip0">
      <path fill="#fff" d="M0 0h18v18H0z"/>
    </clipPath>
  </defs>
</svg>