<svg xmlns="http://www.w3.org/2000/svg" fill="none" viewBox="0 0 100 100">
  <path fill="#059669" d="M45.04 65.013a8.306 8.306 0 004.986 1.654 8.36 8.36 0 006.706-3.347s0-.013.013-.013c.351-.468.638-.95.846-1.432l8.685-18.425A4.146 4.146 0 0065 38.346a4.181 4.181 0 00-5.273.222l-15.26 13.554-.014.013c-.39.352-.755.756-1.094 1.185 0 .013-.013.013-.013.026a8.226 8.226 0 00-1.575 6.185 8.15 8.15 0 003.268 5.482zm1.614-9.14c.182-.235.377-.443.586-.639l15.247-13.567-8.685 18.437-.013.04a3.602 3.602 0 01-.417.69c-1.38 1.835-3.997 2.213-5.859.833a4.118 4.118 0 01-.86-5.794zM33.333 75h33.334v4.167H33.333V75z"/>
  <path fill="#064E3B" d="M96.068 38.867A49.786 49.786 0 0085.352 22.97a49.944 49.944 0 00-15.886-10.716A50.033 50.033 0 0050 8.333a49.81 49.81 0 00-19.466 3.933 49.59 49.59 0 00-15.886 10.716A50.07 50.07 0 003.932 38.88 49.7 49.7 0 000 58.333a49.805 49.805 0 003.034 17.2 49.765 49.765 0 008.385 14.623 4.148 4.148 0 003.216 1.51h70.73a4.19 4.19 0 003.216-1.51 50.056 50.056 0 008.385-14.622 49.804 49.804 0 003.034-17.2 49.81 49.81 0 00-3.932-19.467zM83.346 83.333H16.654A41.799 41.799 0 018.542 62.5h8.125v-8.333H8.542c.833-8.373 4.153-16.016 9.205-22.188l5.339 5.339 5.898-5.899-5.338-5.338c6.172-5.052 13.815-8.373 22.174-9.206V25h8.334v-8.125a41.418 41.418 0 0122.2 9.219l-5.338 5.338 5.898 5.899 5.339-5.339a41.378 41.378 0 019.205 22.175h-8.125V62.5h8.125a41.798 41.798 0 01-8.112 20.833z"/>
</svg>