<svg width="144" height="29" xmlns="http://www.w3.org/2000/svg" fill="none" viewBox="0 0 144 29">
  <path fill="#fff" fill-rule="evenodd" d="M5.154 18.247v7.82c0 1.426-1.167 2.607-2.577 2.607S0 27.493 0 26.067V5.213c0-1.425 1.168-2.606 2.577-2.606H18.04c1.41 0 2.578 1.18 2.578 2.606S19.45 7.82 18.04 7.82H5.154v5.214h9.665c1.41 0 2.577 1.18 2.577 2.606s-1.168 2.607-2.577 2.607H5.154zm22.55-6.788v14.756c0 1.345-1.167 2.46-2.576 2.46-1.41 0-2.578-1.115-2.578-2.46V11.459C22.55 10.114 23.718 9 25.128 9c1.409 0 2.577 1.114 2.577 2.46zm2.9-1.032c0-1.63 1.289-2.933 2.9-2.933 1.167 0 2.174.693 2.617 1.711 1.53-.855 3.262-1.385 5.114-1.385 1.41 0 2.577 1.181 2.577 2.607 0 1.425-1.168 2.607-2.577 2.607-2.86 0-5.154 2.321-5.154 5.213v7.82c0 1.426-1.168 2.607-2.578 2.607-1.409 0-2.577-1.181-2.577-2.607v-7.82c0-1.873.483-3.625 1.37-5.132a2.983 2.983 0 01-1.692-2.688zm25.772 18.247h-2.577c-5.678 0-10.31-4.684-10.31-10.427 0-5.743 4.632-10.427 10.31-10.427 5.678 0 10.308 4.684 10.308 10.427 0 1.426-1.167 2.607-2.577 2.607H49.33c.886 1.588 2.537 2.607 4.47 2.607h2.577c1.41 0 2.577 1.18 2.577 2.606s-1.168 2.607-2.577 2.607zm-2.577-15.64c-1.933 0-3.584 1.059-4.47 2.606h8.94c-.886-1.547-2.578-2.606-4.47-2.606zm28.027 15.64H68.94c-1.41 0-2.578-1.181-2.578-2.607V5.213c0-1.425 1.168-2.606 2.578-2.606h11.597c4.268 0 7.731 3.503 7.731 7.82a7.78 7.78 0 01-1.409 4.48 7.87 7.87 0 012.698 5.947c0 4.317-3.463 7.82-7.731 7.82zm0-10.427h-10.31v5.214h10.31c1.409 0 2.577-1.181 2.577-2.607 0-1.426-1.168-2.607-2.578-2.607zM80.535 7.82h-9.02v5.214h9.02c1.41 0 2.578-1.182 2.578-2.607 0-1.426-1.168-2.607-2.577-2.607zm31.249 2.607v7.82c0 1.874-.523 3.625-1.369 5.173a2.878 2.878 0 011.691 2.647c0 1.63-1.288 2.933-2.899 2.933-1.168 0-2.174-.692-2.658-1.71-1.49.895-3.221 1.384-5.073 1.384-5.678 0-10.31-4.684-10.31-10.427v-7.82c0-1.426 1.169-2.607 2.578-2.607 1.41 0 2.577 1.181 2.577 2.607v7.82c0 2.892 2.296 5.214 5.155 5.214 2.859 0 5.154-2.322 5.154-5.214v-7.82c0-1.426 1.168-2.607 2.577-2.607s2.577 1.181 2.577 2.607zm8.376-7.82v23.46c0 1.426-1.168 2.607-2.577 2.607-1.41 0-2.577-1.181-2.577-2.607V2.607c0-1.426 1.167-2.607 2.577-2.607 1.409 0 2.577 1.181 2.577 2.607zm3.222 15.64V2.607C123.383 1.18 124.55 0 125.96 0c1.409 0 2.577 1.181 2.577 2.607v6.639a9.997 9.997 0 015.154-1.426c5.678 0 10.309 4.684 10.309 10.427 0 5.743-4.631 10.427-10.309 10.427-1.892 0-3.624-.489-5.154-1.385A2.844 2.844 0 01125.919 29c-1.61 0-2.899-1.303-2.899-2.933 0-1.18.685-2.24 1.691-2.688a10.461 10.461 0 01-1.328-5.132zm5.154 0c0 2.892 2.295 5.214 5.154 5.214s5.155-2.322 5.155-5.214c0-2.892-2.296-5.213-5.155-5.213-2.859 0-5.154 2.321-5.154 5.213z" clip-rule="evenodd"/>
  <path fill="url(#paint0_linear)" fill-rule="evenodd" d="M22.55 5.185a2.564 2.564 0 012.575-2.575A2.564 2.564 0 0127.7 5.185a2.564 2.564 0 01-2.575 2.575 2.564 2.564 0 01-2.575-2.575z" clip-rule="evenodd"/>
  <defs>
    <linearGradient id="paint0_linear" x1="25.125" x2="25.125" y1="2.61" y2="7.76" gradientUnits="userSpaceOnUse">
      <stop stop-color="#4CB8C4"/>
      <stop offset="1" stop-color="#3CD3AD"/>
    </linearGradient>
  </defs>
</svg>