<?xml version="1.0" encoding="UTF-8"?>
<svg width="146px" height="30px" viewBox="0 0 146 30" version="1.1" xmlns="http://www.w3.org/2000/svg" xmlns:xlink="http://www.w3.org/1999/xlink">
    <!-- Generator: Sketch 52.6 (67491) - http://www.bohemiancoding.com/sketch -->
    <title>Group</title>
    <desc>Created with Sketch.</desc>
    <defs>
        <linearGradient x1="50%" y1="0%" x2="50%" y2="100%" id="linearGradient-1">
            <stop stop-color="#4CB8C4" offset="0%"></stop>
            <stop stop-color="#3CD3AD" offset="100%"></stop>
        </linearGradient>
    </defs>
    <g id="Page-1" stroke="none" stroke-width="1" fill="none" fill-rule="evenodd">
        <g id="A4" transform="translate(-30.000000, -30.000000)">
            <g id="Group-9" transform="translate(30.000000, 30.000000)">
                <g id="Group">
                    <path d="M14.9948232,30 L14.9948232,29.9643283 C14.9475577,28.5794465 15.5216934,27.259729 16.5773903,26.2187873 C17.8484074,25.0018051 18.5555992,23.351957 18.5555992,21.724138 C18.5556412,19.8487107 17.8456722,18.1960462 16.5773903,16.8549347 C15.2683314,15.7027056 13.5505952,15.0044624 11.829689,14.9821642 C9.86466419,14.960445 8.10968739,15.6381682 6.68634597,16.8549347 C5.44961789,18.1422516 4.71406439,19.8079926 4.7081371,21.724138 C4.70236623,23.3202919 5.39680784,24.9653116 6.68634597,26.2187873 C7.67285782,27.2073426 8.22881508,28.4966422 8.26891306,29.9643283 L8.26891306,30 C3.48448151,28.5432212 2.3743227e-16,24.0788371 0,18.9952438 C0,14.7047937 2.42326757,11.4383294 4.98508634,8.8287753 C7.54690511,6.21922126 12.2933202,4.42871393 10.8010204,0 C12.9053659,1.06349647 14.509745,3.81280257 14.6783098,5.61831156 C14.8468746,7.42382055 14.9047033,8.66884986 14.955259,9.09631395 C15.0058147,9.52377804 15.2430433,10.4340072 16.063056,10.4340072 C16.8830687,10.4340072 17.170853,9.59067933 17.170853,9.09631395 C17.170853,8.60194856 16.8939037,7.49159551 16.3400052,6.15338885 C20.1792626,8.67316586 23.2637363,14.4911139 23.2637363,18.9952438 C23.2637363,24.0788371 19.7792548,28.5432212 14.9948232,30 Z" id="Flame" fill="url(#linearGradient-1)"></path>
                    <path d="M34.6183347,21.5109403 L34.6183347,27.6848019 C34.6183347,28.8102454 33.6815399,29.7427558 32.5509256,29.7427558 C31.4203112,29.7427558 30.4835165,28.8102454 30.4835165,27.6848019 L30.4835165,11.2211709 C30.4835165,10.0957274 31.4203112,9.16321703 32.5509256,9.16321703 L44.9553802,9.16321703 C46.0859945,9.16321703 47.0227893,10.0957274 47.0227893,11.2211709 C47.0227893,12.3466144 46.0859945,13.2791248 44.9553802,13.2791248 L34.6183347,13.2791248 L34.6183347,17.3950325 L42.3711188,17.3950325 C43.5017332,17.3950325 44.4385279,18.3275429 44.4385279,19.4529864 C44.4385279,20.5784299 43.5017332,21.5109403 42.3711188,21.5109403 L34.6183347,21.5109403 Z M52.7081643,16.152055 L52.7081643,27.8012271 C52.7081643,28.8630006 51.7713696,29.7427558 50.6407552,29.7427558 C49.5101409,29.7427558 48.5733461,28.8630006 48.5733461,27.8012271 L48.5733461,16.152055 C48.5733461,15.0902815 49.5101409,14.2105263 50.6407552,14.2105263 C51.7713696,14.2105263 52.7081643,15.0902815 52.7081643,16.152055 Z M55.0339996,15.3370787 C55.0339996,14.0508575 56.0677041,13.0218805 57.3598348,13.0218805 C58.2966295,13.0218805 59.1042112,13.5685245 59.4595472,14.3724128 C60.6870713,13.6971467 62.0761118,13.2791248 63.5620621,13.2791248 C64.6926765,13.2791248 65.6294712,14.2116351 65.6294712,15.3370787 C65.6294712,16.4625222 64.6926765,17.3950325 63.5620621,17.3950325 C61.2685301,17.3950325 59.4272439,19.2278977 59.4272439,21.5109403 L59.4272439,27.6848019 C59.4272439,28.8102454 58.4904491,29.7427558 57.3598348,29.7427558 C56.2292204,29.7427558 55.2924257,28.8102454 55.2924257,27.6848019 L55.2924257,21.5109403 C55.2924257,20.0317859 55.6800649,18.6490982 56.3907368,17.4593436 C55.5831551,17.0734772 55.0339996,16.269589 55.0339996,15.3370787 Z M75.7080906,29.7427558 L73.6406815,29.7427558 C69.0859208,29.7427558 65.3710451,26.0448699 65.3710451,21.5109403 C65.3710451,16.9770106 69.0859208,13.2791248 73.6406815,13.2791248 C78.1954421,13.2791248 81.9103179,16.9770106 81.9103179,21.5109403 C81.9103179,22.6363838 80.9735231,23.5688941 79.8429088,23.5688941 L70.0550188,23.5688941 C70.7656907,24.8229598 72.0901246,25.626848 73.6406815,25.626848 L75.7080906,25.626848 C76.8387049,25.626848 77.7754997,26.5593584 77.7754997,27.6848019 C77.7754997,28.8102454 76.8387049,29.7427558 75.7080906,29.7427558 Z M73.6406815,17.3950325 C72.0901246,17.3950325 70.7656907,18.2310763 70.0550188,19.4529864 L77.2263441,19.4529864 C76.5156722,18.2310763 75.158935,17.3950325 73.6406815,17.3950325 Z M96.1237554,29.7427558 L85.7867099,29.7427558 C84.6560956,29.7427558 83.7193008,28.8102454 83.7193008,27.6848019 L83.7193008,11.2211709 C83.7193008,10.0957274 84.6560956,9.16321703 85.7867099,9.16321703 L95.0900509,9.16321703 C98.5141972,9.16321703 101.292278,11.9285925 101.292278,15.3370787 C101.292278,16.6554554 100.872336,17.8773655 100.161664,18.8741869 C101.486098,19.9996304 102.325983,21.7038734 102.325983,23.5688941 C102.325983,26.9773802 99.5479018,29.7427558 96.1237554,29.7427558 Z M96.1237554,21.5109403 L87.854119,21.5109403 L87.854119,25.626848 L96.1237554,25.626848 C97.2543698,25.626848 98.1911645,24.6943377 98.1911645,23.5688941 C98.1911645,22.4434506 97.2543698,21.5109403 96.1237554,21.5109403 Z M95.0900509,13.2791248 L87.854119,13.2791248 L87.854119,17.3950325 L95.0900509,17.3950325 C96.2206652,17.3950325 97.15746,16.4625222 97.15746,15.3370787 C97.15746,14.2116351 96.2206652,13.2791248 95.0900509,13.2791248 Z M120.157386,15.3370787 L120.157386,21.5109403 C120.157386,22.9900946 119.737444,24.3727824 119.059075,25.5946925 C119.866657,25.9484033 120.415812,26.7522915 120.415812,27.6848019 C120.415812,28.9710231 119.382108,30 118.089977,30 C117.153182,30 116.345601,29.453356 115.957962,28.6494678 C114.762741,29.3568894 113.3737,29.7427558 111.88775,29.7427558 C107.332989,29.7427558 103.618113,26.0448699 103.618113,21.5109403 L103.618113,15.3370787 C103.618113,14.2116351 104.554908,13.2791248 105.685523,13.2791248 C106.816137,13.2791248 107.752932,14.2116351 107.752932,15.3370787 L107.752932,21.5109403 C107.752932,23.7939829 109.594218,25.626848 111.88775,25.626848 C114.181282,25.626848 116.022568,23.7939829 116.022568,21.5109403 L116.022568,15.3370787 C116.022568,14.2116351 116.959363,13.2791248 118.089977,13.2791248 C119.220591,13.2791248 120.157386,14.2116351 120.157386,15.3370787 Z M126.876466,9.16321703 L126.876466,27.6848019 C126.876466,28.8102454 125.939671,29.7427558 124.809057,29.7427558 C123.678442,29.7427558 122.741648,28.8102454 122.741648,27.6848019 L122.741648,9.16321703 C122.741648,8.03777351 123.678442,7.10526316 124.809057,7.10526316 C125.939671,7.10526316 126.876466,8.03777351 126.876466,9.16321703 Z M129.460727,21.5109403 L129.460727,9.16321703 C129.460727,8.03777351 130.397522,7.10526316 131.528136,7.10526316 C132.658751,7.10526316 133.595545,8.03777351 133.595545,9.16321703 L133.595545,14.4045683 C134.790766,13.6971467 136.21211,13.2791248 137.730364,13.2791248 C142.285124,13.2791248 146,16.9770106 146,21.5109403 C146,26.0448699 142.285124,29.7427558 137.730364,29.7427558 C136.21211,29.7427558 134.82307,29.3568894 133.595545,28.6494678 C133.240209,29.453356 132.432628,30 131.495833,30 C130.203702,30 129.169998,28.9710231 129.169998,27.6848019 C129.169998,26.7522915 129.719153,25.9162478 130.526735,25.562537 C129.848366,24.3727824 129.460727,22.9900946 129.460727,21.5109403 Z M133.595545,21.5109403 C133.595545,23.7939829 135.436832,25.626848 137.730364,25.626848 C140.023896,25.626848 141.865182,23.7939829 141.865182,21.5109403 C141.865182,19.2278977 140.023896,17.3950325 137.730364,17.3950325 C135.436832,17.3950325 133.595545,19.2278977 133.595545,21.5109403 Z" id="FireBulb" fill="#12293E"></path>
                    <path d="M48.5730671,11.1986847 C48.5730671,10.0692987 49.491138,9.16578996 50.6387265,9.16578996 C51.7863151,9.16578996 52.7043859,10.0692987 52.7043859,11.1986847 C52.7043859,12.3280707 51.7863151,13.2315795 50.6387265,13.2315795 C49.491138,13.2315795 48.5730671,12.3280707 48.5730671,11.1986847 Z" id="Dot" fill="url(#linearGradient-1)"></path>
                </g>
            </g>
        </g>
    </g>
</svg>