<svg xmlns="http://www.w3.org/2000/svg" fill="none" viewBox="0 0 1440 870">
  <path fill="#fff" d="M1663 63.182H-191v669.202h1854V63.182z"/>
  <path stroke="#F3F4F6" stroke-width="2.575" d="M-90.227 412.792l83.636 44.813v89.625l-83.636 44.813-83.624-44.813v-89.625l83.624-44.813zm-83.624 134.438l83.624 44.813v89.625l-83.624 44.812-83.623-44.812v-89.625l83.623-44.813zm83.624 134.438l83.636 44.812v89.625l-83.636 44.813-83.624-44.813V726.48l83.624-44.812zM-6.591 547.23l83.623 44.813v89.625L-6.591 726.48l-83.636-44.812v-89.625l83.636-44.813zm83.623 134.438l83.623 44.812v89.625l-83.623 44.813-83.623-44.813V726.48l83.623-44.812zM244.29 143.917l83.623 44.812v89.626l-83.623 44.812-83.636-44.812v-89.626l83.636-44.812zM411.55 412.792l83.623 44.813v89.625l-83.623 44.813-83.636-44.813v-89.625l83.636-44.813zm167.246-268.875l83.636 44.812v89.626l-83.636 44.812-83.623-44.812v-89.626l83.623-44.812zm83.636 403.313l83.623 44.813v89.625l-83.623 44.812-83.636-44.812v-89.625l83.636-44.813zm250.882-134.438l83.624 44.813v89.625l-83.624 44.813-83.635-44.813v-89.625l83.635-44.813zM829.679 547.23l83.635 44.813v89.625l-83.635 44.812-83.624-44.812v-89.625l83.624-44.813zm585.401-134.438l83.62 44.813v89.625l-83.62 44.813-83.62-44.813v-89.625l83.62-44.813zm167.26-268.875l83.62 44.812v89.626l-83.62 44.812-83.64-44.812v-89.626l83.64-44.812zm83.62-134.438l83.64 44.813v89.625l-83.64 44.812-83.62-44.812V54.292l83.62-44.813z"/>
  <path fill="#F3F4F6" d="M-99.884 412.792c0 2.377 1.018 4.657 2.829 6.338 1.81 1.68 4.267 2.625 6.828 2.625 2.56 0 5.017-.945 6.828-2.625 1.81-1.681 2.828-3.961 2.828-6.338 0-2.377-1.017-4.656-2.828-6.337s-4.267-2.625-6.828-2.625-5.017.944-6.828 2.625-2.829 3.96-2.829 6.337zm83.636 44.813c0 2.377 1.018 4.656 2.829 6.337 1.81 1.681 4.267 2.625 6.828 2.625 2.56 0 5.017-.944 6.828-2.625 1.81-1.681 2.828-3.96 2.828-6.337s-1.017-4.657-2.828-6.338c-1.811-1.68-4.267-2.625-6.828-2.625s-5.017.945-6.828 2.625c-1.811 1.681-2.829 3.961-2.829 6.338zm0 89.625c0 2.377 1.018 4.657 2.829 6.337 1.81 1.681 4.267 2.625 6.828 2.625 2.56 0 5.017-.944 6.828-2.625 1.81-1.68 2.828-3.96 2.828-6.337s-1.017-4.657-2.828-6.337c-1.811-1.681-4.267-2.626-6.828-2.626s-5.017.945-6.828 2.626c-1.811 1.68-2.829 3.96-2.829 6.337zm-83.636 44.812c0 2.377 1.018 4.657 2.829 6.338 1.81 1.681 4.267 2.625 6.828 2.625 2.56 0 5.017-.944 6.828-2.625 1.81-1.681 2.828-3.961 2.828-6.338 0-2.376-1.017-4.656-2.828-6.337s-4.267-2.625-6.828-2.625-5.017.944-6.828 2.625-2.829 3.961-2.829 6.337zm-83.623-44.812c0 1.177.25 2.342.735 3.43a8.969 8.969 0 002.093 2.907 9.729 9.729 0 003.133 1.943c1.172.451 2.427.682 3.695.682 1.269 0 2.524-.231 3.696-.682a9.729 9.729 0 003.133-1.943 8.969 8.969 0 002.093-2.907 8.414 8.414 0 00.735-3.43c0-1.177-.25-2.342-.735-3.43a8.969 8.969 0 00-2.093-2.907 9.729 9.729 0 00-3.133-1.943 10.298 10.298 0 00-3.696-.683c-1.268 0-2.523.232-3.695.683a9.729 9.729 0 00-3.133 1.943 8.969 8.969 0 00-2.093 2.907 8.414 8.414 0 00-.735 3.43zm0-89.625c0 1.177.25 2.342.735 3.43a8.969 8.969 0 002.093 2.907 9.729 9.729 0 003.133 1.943c1.172.45 2.427.682 3.695.682a10.32 10.32 0 003.696-.682 9.729 9.729 0 003.133-1.943 8.969 8.969 0 002.093-2.907 8.414 8.414 0 00.735-3.43 8.41 8.41 0 00-.735-3.43 8.983 8.983 0 00-2.093-2.908 9.763 9.763 0 00-3.133-1.943 10.32 10.32 0 00-3.696-.682c-1.268 0-2.523.232-3.695.682a9.763 9.763 0 00-3.133 1.943 8.983 8.983 0 00-2.093 2.908 8.41 8.41 0 00-.735 3.43zm83.623 224.063c0 2.377 1.018 4.656 2.829 6.337 1.81 1.681 4.267 2.625 6.828 2.625 2.56 0 5.017-.944 6.828-2.625 1.81-1.681 2.828-3.96 2.828-6.337s-1.017-4.657-2.828-6.338-4.267-2.625-6.828-2.625-5.017.944-6.828 2.625-2.829 3.961-2.829 6.338zm-83.623 44.812c0 1.177.25 2.343.735 3.43a8.983 8.983 0 002.093 2.908 9.743 9.743 0 003.133 1.942c1.172.451 2.427.683 3.695.683 1.269 0 2.524-.232 3.696-.683a9.743 9.743 0 003.133-1.942 8.983 8.983 0 002.093-2.908 8.41 8.41 0 00.735-3.43c0-1.177-.25-2.342-.735-3.43a8.969 8.969 0 00-2.093-2.907 9.746 9.746 0 00-3.133-1.943 10.32 10.32 0 00-3.696-.682c-1.268 0-2.523.232-3.695.682a9.746 9.746 0 00-3.133 1.943 8.969 8.969 0 00-2.093 2.907 8.414 8.414 0 00-.735 3.43zm-83.623-44.812c0 2.377 1.017 4.656 2.828 6.337s4.267 2.625 6.828 2.625 5.017-.944 6.828-2.625 2.829-3.96 2.829-6.337-1.018-4.657-2.829-6.338c-1.811-1.681-4.267-2.625-6.828-2.625s-5.017.944-6.828 2.625-2.828 3.961-2.828 6.338zm0-89.626c0 2.377 1.017 4.657 2.828 6.338s4.267 2.625 6.828 2.625 5.017-.944 6.828-2.625 2.829-3.961 2.829-6.338c0-2.376-1.018-4.656-2.829-6.337-1.811-1.681-4.267-2.625-6.828-2.625s-5.017.944-6.828 2.625-2.828 3.961-2.828 6.337zM-16.248 726.48c0 2.377 1.018 4.657 2.829 6.338 1.81 1.68 4.267 2.625 6.828 2.625 2.56 0 5.017-.945 6.828-2.625 1.81-1.681 2.828-3.961 2.828-6.338 0-2.377-1.017-4.656-2.828-6.337s-4.267-2.625-6.828-2.625-5.017.944-6.828 2.625-2.829 3.96-2.829 6.337zm0 89.625c0 2.377 1.018 4.657 2.829 6.338 1.81 1.681 4.267 2.625 6.828 2.625 2.56 0 5.017-.944 6.828-2.625 1.81-1.681 2.828-3.961 2.828-6.338 0-2.377-1.017-4.656-2.828-6.337s-4.267-2.625-6.828-2.625-5.017.944-6.828 2.625-2.829 3.96-2.829 6.337zm-83.636 44.813c0 2.377 1.018 4.657 2.829 6.337 1.81 1.681 4.267 2.625 6.828 2.625 2.56 0 5.017-.944 6.828-2.625 1.81-1.68 2.828-3.96 2.828-6.337s-1.017-4.657-2.828-6.337c-1.811-1.681-4.267-2.626-6.828-2.626s-5.017.945-6.828 2.626c-1.811 1.68-2.829 3.96-2.829 6.337zm-83.623-44.813c0 1.177.25 2.343.735 3.43a8.962 8.962 0 002.093 2.908 9.763 9.763 0 003.133 1.943c1.172.45 2.427.682 3.695.682a10.32 10.32 0 003.696-.682 9.763 9.763 0 003.133-1.943 8.962 8.962 0 002.093-2.908 8.41 8.41 0 00.735-3.43c0-1.177-.25-2.342-.735-3.429a8.962 8.962 0 00-2.093-2.908 9.763 9.763 0 00-3.133-1.943 10.32 10.32 0 00-3.696-.682c-1.268 0-2.523.232-3.695.682a9.763 9.763 0 00-3.133 1.943 8.962 8.962 0 00-2.093 2.908 8.406 8.406 0 00-.735 3.429zM67.375 592.042c0 2.377 1.018 4.657 2.829 6.338 1.81 1.681 4.267 2.625 6.828 2.625 2.56 0 5.017-.944 6.828-2.625 1.81-1.681 2.828-3.961 2.828-6.338 0-2.376-1.017-4.656-2.828-6.337s-4.267-2.625-6.828-2.625-5.017.944-6.828 2.625-2.828 3.961-2.828 6.337zm0 89.626c0 2.377 1.018 4.656 2.829 6.337 1.81 1.681 4.267 2.625 6.828 2.625 2.56 0 5.017-.944 6.828-2.625 1.81-1.681 2.828-3.96 2.828-6.337s-1.017-4.657-2.828-6.338-4.267-2.625-6.828-2.625-5.017.944-6.828 2.625-2.828 3.961-2.828 6.338zM151 726.48c0 2.377 1.017 4.657 2.828 6.338 1.811 1.68 4.267 2.625 6.828 2.625s5.017-.945 6.828-2.625c1.811-1.681 2.828-3.961 2.828-6.338 0-2.377-1.017-4.656-2.828-6.337s-4.267-2.625-6.828-2.625-5.017.944-6.828 2.625-2.828 3.96-2.828 6.337zm0 89.625c0 2.377 1.017 4.657 2.828 6.338s4.267 2.625 6.828 2.625 5.017-.944 6.828-2.625 2.828-3.961 2.828-6.338c0-2.377-1.017-4.656-2.828-6.337s-4.267-2.625-6.828-2.625-5.017.944-6.828 2.625-2.828 3.96-2.828 6.337zm-83.623 44.813c0 2.377 1.017 4.657 2.828 6.337 1.81 1.681 4.267 2.625 6.828 2.625 2.56 0 5.017-.944 6.828-2.625 1.81-1.68 2.828-3.96 2.828-6.337s-1.017-4.657-2.828-6.337c-1.811-1.681-4.267-2.626-6.828-2.626s-5.017.945-6.828 2.626c-1.811 1.68-2.828 3.96-2.828 6.337zm167.259-717.001c0 2.377 1.017 4.656 2.828 6.337s4.267 2.625 6.828 2.625 5.017-.944 6.828-2.625 2.828-3.96 2.828-6.337-1.017-4.657-2.828-6.338-4.267-2.625-6.828-2.625-5.017.944-6.828 2.625-2.828 3.961-2.828 6.338zm83.623 44.812c0 2.377 1.017 4.657 2.828 6.338s4.267 2.625 6.828 2.625 5.017-.944 6.828-2.625 2.828-3.961 2.828-6.338c0-2.377-1.017-4.656-2.828-6.337s-4.267-2.625-6.828-2.625-5.017.944-6.828 2.625-2.828 3.96-2.828 6.337zm0 89.625c0 2.377 1.017 4.657 2.828 6.338s4.267 2.625 6.828 2.625 5.017-.944 6.828-2.625 2.828-3.961 2.828-6.338c0-2.377-1.017-4.656-2.828-6.337s-4.267-2.625-6.828-2.625-5.017.944-6.828 2.625-2.828 3.96-2.828 6.337zm-83.623 44.813c0 2.377 1.017 4.657 2.828 6.337 1.811 1.681 4.267 2.626 6.828 2.626s5.017-.945 6.828-2.626c1.811-1.68 2.828-3.96 2.828-6.337s-1.017-4.657-2.828-6.337c-1.811-1.681-4.267-2.625-6.828-2.625s-5.017.944-6.828 2.625c-1.811 1.68-2.828 3.96-2.828 6.337zm-83.636-44.813c0 2.377 1.017 4.657 2.828 6.338s4.267 2.625 6.828 2.625 5.017-.944 6.828-2.625 2.828-3.961 2.828-6.338c0-2.377-1.017-4.656-2.828-6.337s-4.267-2.625-6.828-2.625-5.017.944-6.828 2.625-2.828 3.96-2.828 6.337zm0-89.625c0 2.377 1.017 4.657 2.828 6.338s4.267 2.625 6.828 2.625 5.017-.944 6.828-2.625 2.828-3.961 2.828-6.338c0-2.377-1.017-4.656-2.828-6.337s-4.267-2.625-6.828-2.625-5.017.944-6.828 2.625-2.828 3.96-2.828 6.337zm250.895 224.063c0 2.377 1.017 4.657 2.828 6.338 1.811 1.68 4.267 2.625 6.828 2.625s5.017-.945 6.828-2.625c1.811-1.681 2.828-3.961 2.828-6.338 0-2.377-1.017-4.656-2.828-6.337s-4.267-2.625-6.828-2.625-5.017.944-6.828 2.625-2.828 3.96-2.828 6.337zm83.623 44.813c0 2.377 1.017 4.656 2.828 6.337s4.267 2.625 6.828 2.625 5.017-.944 6.828-2.625 2.828-3.96 2.828-6.337-1.017-4.657-2.828-6.338c-1.811-1.68-4.267-2.625-6.828-2.625s-5.017.945-6.828 2.625c-1.811 1.681-2.828 3.961-2.828 6.338zm0 89.625c0 2.377 1.017 4.657 2.828 6.337 1.811 1.681 4.267 2.625 6.828 2.625s5.017-.944 6.828-2.625c1.811-1.68 2.828-3.96 2.828-6.337s-1.017-4.657-2.828-6.337c-1.811-1.681-4.267-2.626-6.828-2.626s-5.017.945-6.828 2.626c-1.811 1.68-2.828 3.96-2.828 6.337zm-83.623 44.812c0 2.377 1.017 4.657 2.828 6.338s4.267 2.625 6.828 2.625 5.017-.944 6.828-2.625 2.828-3.961 2.828-6.338c0-2.376-1.017-4.656-2.828-6.337s-4.267-2.625-6.828-2.625-5.017.944-6.828 2.625-2.828 3.961-2.828 6.337zm-83.636-44.812c0 2.377 1.017 4.657 2.828 6.337 1.811 1.681 4.267 2.625 6.828 2.625s5.017-.944 6.828-2.625c1.811-1.68 2.828-3.96 2.828-6.337s-1.017-4.657-2.828-6.337c-1.811-1.681-4.267-2.626-6.828-2.626s-5.017.945-6.828 2.626c-1.811 1.68-2.828 3.96-2.828 6.337zm0-89.625c0 2.377 1.017 4.656 2.828 6.337s4.267 2.625 6.828 2.625 5.017-.944 6.828-2.625 2.828-3.96 2.828-6.337-1.017-4.657-2.828-6.338c-1.811-1.68-4.267-2.625-6.828-2.625s-5.017.945-6.828 2.625c-1.811 1.681-2.828 3.961-2.828 6.338zM569.14 143.917c0 2.377 1.017 4.656 2.828 6.337s4.267 2.625 6.828 2.625 5.017-.944 6.828-2.625 2.829-3.96 2.829-6.337-1.018-4.657-2.829-6.338c-1.811-1.681-4.267-2.625-6.828-2.625s-5.017.944-6.828 2.625-2.828 3.961-2.828 6.338zm83.636 44.812c0 2.377 1.017 4.657 2.828 6.338s4.267 2.625 6.828 2.625 5.017-.944 6.828-2.625 2.829-3.961 2.829-6.338c0-2.377-1.018-4.656-2.829-6.337-1.811-1.681-4.267-2.625-6.828-2.625s-5.017.944-6.828 2.625-2.828 3.96-2.828 6.337zm0 89.625c0 2.377 1.017 4.657 2.828 6.338s4.267 2.625 6.828 2.625 5.017-.944 6.828-2.625 2.829-3.961 2.829-6.338c0-2.377-1.018-4.656-2.829-6.337-1.811-1.681-4.267-2.625-6.828-2.625s-5.017.944-6.828 2.625-2.828 3.96-2.828 6.337zm-83.636 44.813c0 2.377 1.017 4.657 2.828 6.337 1.811 1.681 4.267 2.626 6.828 2.626s5.017-.945 6.828-2.626c1.811-1.68 2.829-3.96 2.829-6.337s-1.018-4.657-2.829-6.337c-1.811-1.681-4.267-2.625-6.828-2.625s-5.017.944-6.828 2.625c-1.811 1.68-2.828 3.96-2.828 6.337zm-83.623-44.813c0 2.377 1.017 4.657 2.828 6.338s4.267 2.625 6.828 2.625 5.017-.944 6.828-2.625 2.828-3.961 2.828-6.338c0-2.377-1.017-4.656-2.828-6.337s-4.267-2.625-6.828-2.625-5.017.944-6.828 2.625-2.828 3.96-2.828 6.337zm0-89.625c0 2.377 1.017 4.657 2.828 6.338s4.267 2.625 6.828 2.625 5.017-.944 6.828-2.625 2.828-3.961 2.828-6.338c0-2.377-1.017-4.656-2.828-6.337s-4.267-2.625-6.828-2.625-5.017.944-6.828 2.625-2.828 3.96-2.828 6.337zM652.776 547.23c0 2.377 1.017 4.657 2.828 6.337 1.811 1.681 4.267 2.625 6.828 2.625s5.017-.944 6.828-2.625c1.811-1.68 2.829-3.96 2.829-6.337s-1.018-4.657-2.829-6.337c-1.811-1.681-4.267-2.626-6.828-2.626s-5.017.945-6.828 2.626c-1.811 1.68-2.828 3.96-2.828 6.337zm83.623 44.812c0 2.377 1.018 4.657 2.828 6.338 1.811 1.681 4.267 2.625 6.828 2.625s5.017-.944 6.828-2.625 2.829-3.961 2.829-6.338c0-2.376-1.018-4.656-2.829-6.337-1.811-1.681-4.267-2.625-6.828-2.625s-5.017.944-6.828 2.625c-1.81 1.681-2.828 3.961-2.828 6.337zm0 89.626c0 2.377 1.018 4.656 2.828 6.337 1.811 1.681 4.267 2.625 6.828 2.625s5.017-.944 6.828-2.625 2.829-3.96 2.829-6.337-1.018-4.657-2.829-6.338c-1.811-1.681-4.267-2.625-6.828-2.625s-5.017.944-6.828 2.625c-1.81 1.681-2.828 3.961-2.828 6.338zm-83.623 44.812c0 2.377 1.017 4.657 2.828 6.338 1.811 1.68 4.267 2.625 6.828 2.625s5.017-.945 6.828-2.625c1.811-1.681 2.829-3.961 2.829-6.338 0-2.377-1.018-4.656-2.829-6.337-1.811-1.681-4.267-2.625-6.828-2.625s-5.017.944-6.828 2.625-2.828 3.96-2.828 6.337zm-83.636-44.812c0 2.377 1.017 4.656 2.828 6.337s4.267 2.625 6.828 2.625 5.017-.944 6.828-2.625 2.829-3.96 2.829-6.337-1.018-4.657-2.829-6.338c-1.811-1.681-4.267-2.625-6.828-2.625s-5.017.944-6.828 2.625-2.828 3.961-2.828 6.338zm0-89.626c0 2.377 1.017 4.657 2.828 6.338s4.267 2.625 6.828 2.625 5.017-.944 6.828-2.625 2.829-3.961 2.829-6.338c0-2.376-1.018-4.656-2.829-6.337-1.811-1.681-4.267-2.625-6.828-2.625s-5.017.944-6.828 2.625-2.828 3.961-2.828 6.337zm334.518-179.25c0 2.377 1.018 4.657 2.828 6.338 1.811 1.68 4.268 2.625 6.828 2.625 2.561 0 5.018-.945 6.829-2.625 1.81-1.681 2.828-3.961 2.828-6.338 0-2.377-1.018-4.656-2.828-6.337-1.811-1.681-4.268-2.625-6.829-2.625-2.56 0-5.017.944-6.828 2.625-1.81 1.681-2.828 3.96-2.828 6.337zm83.623 44.813c0 2.377 1.018 4.656 2.829 6.337 1.811 1.681 4.267 2.625 6.828 2.625s5.012-.944 6.832-2.625c1.81-1.681 2.82-3.96 2.82-6.337s-1.01-4.657-2.82-6.338c-1.82-1.68-4.271-2.625-6.832-2.625s-5.017.945-6.828 2.625c-1.811 1.681-2.829 3.961-2.829 6.338zm0 89.625c0 2.377 1.018 4.657 2.829 6.337 1.811 1.681 4.267 2.625 6.828 2.625s5.012-.944 6.832-2.625c1.81-1.68 2.82-3.96 2.82-6.337s-1.01-4.657-2.82-6.337c-1.82-1.681-4.271-2.626-6.832-2.626s-5.017.945-6.828 2.626c-1.811 1.68-2.829 3.96-2.829 6.337zm-83.623 44.812c0 2.377 1.018 4.657 2.828 6.338 1.811 1.681 4.268 2.625 6.828 2.625 2.561 0 5.018-.944 6.829-2.625 1.81-1.681 2.828-3.961 2.828-6.338 0-2.376-1.018-4.656-2.828-6.337-1.811-1.681-4.268-2.625-6.829-2.625-2.56 0-5.017.944-6.828 2.625-1.81 1.681-2.828 3.961-2.828 6.337zm-83.636-44.812c0 2.377 1.018 4.657 2.829 6.337 1.81 1.681 4.267 2.625 6.828 2.625s5.017-.944 6.827-2.625c1.811-1.68 2.829-3.96 2.829-6.337s-1.018-4.657-2.829-6.337c-1.81-1.681-4.266-2.626-6.827-2.626s-5.018.945-6.828 2.626c-1.811 1.68-2.829 3.96-2.829 6.337zm0-89.625c0 2.377 1.018 4.656 2.829 6.337 1.81 1.681 4.267 2.625 6.828 2.625s5.017-.944 6.827-2.625c1.811-1.681 2.829-3.96 2.829-6.337s-1.018-4.657-2.829-6.338c-1.81-1.68-4.266-2.625-6.827-2.625s-5.018.945-6.828 2.625c-1.811 1.681-2.829 3.961-2.829 6.338zm83.636 224.063c0 2.377 1.018 4.656 2.828 6.337 1.811 1.681 4.268 2.625 6.828 2.625 2.561 0 5.018-.944 6.829-2.625 1.81-1.681 2.828-3.96 2.828-6.337s-1.018-4.657-2.828-6.338c-1.811-1.681-4.268-2.625-6.829-2.625-2.56 0-5.017.944-6.828 2.625-1.81 1.681-2.828 3.961-2.828 6.338zm-83.636 44.812c0 2.377 1.018 4.657 2.829 6.338 1.81 1.68 4.267 2.625 6.828 2.625s5.017-.945 6.827-2.625c1.811-1.681 2.829-3.961 2.829-6.338 0-2.377-1.018-4.656-2.829-6.337-1.81-1.681-4.266-2.625-6.827-2.625s-5.018.944-6.828 2.625c-1.811 1.681-2.829 3.96-2.829 6.337zm585.398-313.688c0 2.377 1.02 4.657 2.83 6.338 1.81 1.68 4.27 2.625 6.83 2.625 2.56 0 5.02-.945 6.83-2.625 1.81-1.681 2.83-3.961 2.83-6.338 0-2.377-1.02-4.656-2.83-6.337s-4.27-2.625-6.83-2.625c-2.56 0-5.02.944-6.83 2.625-1.81 1.681-2.83 3.96-2.83 6.337zm83.63 44.813c0 2.377 1.01 4.656 2.82 6.337 1.82 1.681 4.27 2.625 6.83 2.625 2.56 0 5.02-.944 6.83-2.625 1.81-1.681 2.83-3.96 2.83-6.337s-1.02-4.657-2.83-6.338c-1.81-1.68-4.27-2.625-6.83-2.625-2.56 0-5.01.945-6.83 2.625-1.81 1.681-2.82 3.961-2.82 6.338zm0 89.625c0 2.377 1.01 4.657 2.82 6.337 1.82 1.681 4.27 2.625 6.83 2.625 2.56 0 5.02-.944 6.83-2.625 1.81-1.68 2.83-3.96 2.83-6.337s-1.02-4.657-2.83-6.337c-1.81-1.681-4.27-2.626-6.83-2.626-2.56 0-5.01.945-6.83 2.626-1.81 1.68-2.82 3.96-2.82 6.337zm-83.63 44.812c0 2.377 1.02 4.657 2.83 6.338s4.27 2.625 6.83 2.625c2.56 0 5.02-.944 6.83-2.625 1.81-1.681 2.83-3.961 2.83-6.338 0-2.376-1.02-4.656-2.83-6.337s-4.27-2.625-6.83-2.625c-2.56 0-5.02.944-6.83 2.625-1.81 1.681-2.83 3.961-2.83 6.337zm-83.62-44.812c0 2.377 1.02 4.657 2.83 6.337 1.81 1.681 4.26 2.625 6.83 2.625 2.56 0 5.01-.944 6.82-2.625 1.81-1.68 2.83-3.96 2.83-6.337s-1.02-4.657-2.83-6.337c-1.81-1.681-4.26-2.626-6.82-2.626-2.57 0-5.02.945-6.83 2.626-1.81 1.68-2.83 3.96-2.83 6.337zm0-89.625c0 2.377 1.02 4.656 2.83 6.337s4.26 2.625 6.83 2.625c2.56 0 5.01-.944 6.82-2.625 1.81-1.681 2.83-3.96 2.83-6.337s-1.02-4.657-2.83-6.338c-1.81-1.68-4.26-2.625-6.82-2.625-2.57 0-5.02.945-6.83 2.625-1.81 1.681-2.83 3.961-2.83 6.338zm250.88-313.688c0 2.377 1.02 4.656 2.83 6.337s4.27 2.625 6.83 2.625c2.56 0 5.02-.944 6.83-2.625 1.81-1.681 2.82-3.96 2.82-6.337s-1.01-4.657-2.82-6.338c-1.81-1.681-4.27-2.625-6.83-2.625-2.56 0-5.02.944-6.83 2.625-1.81 1.681-2.83 3.961-2.83 6.338zm83.63 44.812c0 2.377 1.01 4.657 2.82 6.338 1.81 1.681 4.27 2.625 6.83 2.625 2.56 0 5.02-.944 6.83-2.625 1.81-1.681 2.83-3.961 2.83-6.338 0-2.377-1.02-4.656-2.83-6.337s-4.27-2.625-6.83-2.625c-2.56 0-5.02.944-6.83 2.625-1.81 1.681-2.82 3.96-2.82 6.337zm0 89.625c0 2.377 1.01 4.657 2.82 6.338 1.81 1.681 4.27 2.625 6.83 2.625 2.56 0 5.02-.944 6.83-2.625 1.81-1.681 2.83-3.961 2.83-6.338 0-2.377-1.02-4.656-2.83-6.337s-4.27-2.625-6.83-2.625c-2.56 0-5.02.944-6.83 2.625-1.81 1.681-2.82 3.96-2.82 6.337zm-83.63 44.813c0 2.377 1.02 4.657 2.83 6.337 1.81 1.681 4.27 2.626 6.83 2.626 2.56 0 5.02-.945 6.83-2.626 1.81-1.68 2.82-3.96 2.82-6.337s-1.01-4.657-2.82-6.337c-1.81-1.681-4.27-2.625-6.83-2.625-2.56 0-5.02.944-6.83 2.625-1.81 1.68-2.83 3.96-2.83 6.337zm-83.63-44.813c0 2.377 1.01 4.657 2.82 6.338 1.82 1.681 4.27 2.625 6.83 2.625 2.56 0 5.02-.944 6.83-2.625 1.81-1.681 2.83-3.961 2.83-6.338 0-2.377-1.02-4.656-2.83-6.337s-4.27-2.625-6.83-2.625c-2.56 0-5.01.944-6.83 2.625-1.81 1.681-2.82 3.96-2.82 6.337zm0-89.625c0 2.377 1.01 4.657 2.82 6.338 1.82 1.681 4.27 2.625 6.83 2.625 2.56 0 5.02-.944 6.83-2.625 1.81-1.681 2.83-3.961 2.83-6.338 0-2.377-1.02-4.656-2.83-6.337s-4.27-2.625-6.83-2.625c-2.56 0-5.01.944-6.83 2.625-1.81 1.681-2.82 3.96-2.82 6.337zm167.26-179.25c0 2.377 1.01 4.657 2.82 6.337 1.81 1.681 4.27 2.626 6.83 2.626 2.56 0 5.02-.945 6.83-2.626 1.81-1.68 2.83-3.96 2.83-6.337s-1.02-4.657-2.83-6.337c-1.81-1.681-4.27-2.626-6.83-2.626-2.56 0-5.02.945-6.83 2.626-1.81 1.68-2.82 3.96-2.82 6.337zm83.63 44.813c0 2.377 1.02 4.656 2.83 6.337 1.81 1.68 4.27 2.625 6.83 2.625 2.56 0 5.01-.944 6.83-2.625 1.81-1.68 2.82-3.96 2.82-6.337s-1.01-4.657-2.82-6.338c-1.82-1.68-4.27-2.625-6.83-2.625-2.56 0-5.02.944-6.83 2.625-1.81 1.68-2.83 3.96-2.83 6.338zm0 89.625c0 2.377 1.02 4.656 2.83 6.337s4.27 2.625 6.83 2.625c2.56 0 5.01-.944 6.83-2.625 1.81-1.681 2.82-3.96 2.82-6.337s-1.01-4.657-2.82-6.338c-1.82-1.681-4.27-2.625-6.83-2.625-2.56 0-5.02.944-6.83 2.625-1.81 1.681-2.83 3.961-2.83 6.338zm-167.26-89.625c0 2.377 1.02 4.656 2.83 6.337 1.81 1.68 4.27 2.625 6.83 2.625 2.56 0 5.02-.944 6.83-2.625 1.81-1.68 2.82-3.96 2.82-6.337s-1.01-4.657-2.82-6.338c-1.81-1.68-4.27-2.625-6.83-2.625-2.56 0-5.02.944-6.83 2.625-1.81 1.68-2.83 3.96-2.83 6.338z"/>
  <path stroke="#D1FAE5" stroke-width="2.575" d="M-57.911 37l55.749 29.875v59.75l-55.75 29.875-55.761-29.875v-59.75L-57.911 37zm55.749 448.126l55.748 29.875v59.75l-55.748 29.875-55.75-29.875v-59.75l55.75-29.875zM53.586 37l55.749 29.875v59.75L53.586 156.5l-55.748-29.875v-59.75L53.586 37zm111.498 0l55.762 29.875v59.75L165.084 156.5l-55.749-29.875v-59.75L165.084 37zm0 179.25l55.762 29.875v59.75l-55.762 29.875-55.749-29.875v-59.75l55.749-29.875zm111.51 179.251l55.749 29.875v59.75l-55.749 29.875-55.748-29.875v-59.75l55.748-29.875zm167.259-268.876l55.749 29.875v59.75l-55.749 29.875-55.748-29.875V156.5l55.748-29.875zm0 179.25l55.749 29.875v59.751l-55.749 29.875-55.748-29.875V335.75l55.748-29.875zM499.602 37l55.749 29.875v59.75L499.602 156.5l-55.749-29.875v-59.75L499.602 37zm0 179.25l55.749 29.875v59.75l-55.749 29.875-55.749-29.875v-59.75l55.749-29.875zm55.749 268.876l55.762 29.875v59.75l-55.762 29.875-55.749-29.875v-59.75l55.749-29.875zM611.113 37l55.748 29.875v59.75L611.113 156.5l-55.762-29.875v-59.75L611.113 37zm0 179.25l55.748 29.875v59.75l-55.748 29.875-55.762-29.875v-59.75l55.762-29.875zm55.748 268.876l55.749 29.875v59.75l-55.749 29.875-55.748-29.875v-59.75l55.748-29.875zm111.498-358.501L834.12 156.5v59.75l-55.761 29.875-55.749-29.875V156.5l55.749-29.875zm0 358.501l55.761 29.875v59.75l-55.761 29.875-55.749-29.875v-59.75l55.749-29.875zm111.51 0l55.749 29.875v59.75l-55.749 29.875-55.749-29.875v-59.75l55.749-29.875zm111.501-358.501l55.76 29.875v59.75l-55.76 29.875-55.752-29.875V156.5l55.752-29.875zm-55.752 89.625l55.752 29.875v59.75l-55.752 29.875-55.749-29.875v-59.75l55.749-29.875zm0 179.251l55.752 29.875v59.75l-55.752 29.875-55.749-29.875v-59.75l55.749-29.875zm167.262-268.876l55.75 29.875v59.75l-55.75 29.875-55.75-29.875V156.5l55.75-29.875zm0 537.751l55.75 29.875v59.75l-55.75 29.875-55.75-29.875v-59.75l55.75-29.875zM1168.63 37l55.74 29.875v59.75l-55.74 29.875-55.75-29.875v-59.75L1168.63 37zm55.74 89.625l55.77 29.875v59.75l-55.77 29.875-55.74-29.875V156.5l55.74-29.875zm-55.74 89.625l55.74 29.875v59.75l-55.74 29.875-55.75-29.875v-59.75l55.75-29.875zm0 179.251l55.74 29.875v59.75l-55.74 29.875-55.75-29.875v-59.75l55.75-29.875zM1391.63 37l55.75 29.875v59.75l-55.75 29.875-55.75-29.875v-59.75L1391.63 37zm167.26 89.625l55.75 29.875v59.75l-55.75 29.875-55.75-29.875V156.5l55.75-29.875zm55.75 89.625l55.75 29.875v59.75l-55.75 29.875-55.75-29.875v-59.75l55.75-29.875z"/>
</svg>